Covid · Portfolio website for Joseph Perrin
…
#We group our observation by Death, Age, Sex and Morbidity, the variables of interest for our graph. 
          group_by(Age ,Sex, Morbidity, Death) %>% 
          count()%>% 
  
#We modify our datafram to get "Yes" and "No" (Death) as Variable
          spread(key=Death, value=n) %>% 
  
#We summarise to get the death rate per Age group, Sex and Morbidity. We create an additional column to round those findings.
          summarise(death= (Yes/(Yes+No)*100),death_rate= round(death, digits = 1))

death_morbidity

## # A tibble: 36 x 5
## # Groups:   Age, Sex [18]
##    Age           Sex    Morbidity   death death_rate
##    <chr>         <chr>  <chr>       <dbl>      <dbl>
##  1 0 - 9 Years   Female No        0.0775         0.1
##  2 0 - 9 Years   Female Yes       0.295          0.3
##  3 0 - 9 Years   Male   No        0.0764         0.1
##  4 0 - 9 Years   Male   Yes       0.220          0.2
##  5 10 - 19 Years Female No        0.00713        0  
##  6 10 - 19 Years Female Yes       0.207          0.2
##  7 10 - 19 Years Male   No        0.0238         0  
##  8 10 - 19 Years Male   Yes       0.282          0.3
##  9 20 - 29 Years Female No        0.0155         0  
## 10 20 - 29 Years Female Yes       0.382          0.4
## # … with 26 more rows
…
#We group our observation by Death, Age, Sex and ICU, the variables of interest for our graph. 
          group_by(Age ,Sex, ICU, Death) %>% 
          count()%>% 
  
#We modify our dataframe to get "Yes" and "No" (Death) as Variable
          spread(key=Death, value=n) %>% 
  
#We summarise to get the death rate per Age group, Sex and Morbidity.
          summarise(death2= (Yes/(Yes+No)*100), death_rate2= round(death2, digits = 1))

death_ICU

## # A tibble: 36 x 5
## # Groups:   Age, Sex [18]
##    Age           Sex    ICU    death2 death_rate2
##    <chr>         <chr>  <chr>   <dbl>       <dbl>
##  1 0 - 9 Years   Female No     0.156          0.2
##  2 0 - 9 Years   Female Yes    3.03           3  
##  3 0 - 9 Years   Male   No     0.0653         0.1
##  4 0 - 9 Years   Male   Yes    8.79           8.8
##  5 10 - 19 Years Female No     0.0245         0  
##  6 10 - 19 Years Female Yes    6.86           6.9
##  7 10 - 19 Years Male   No     0.0358         0  
##  8 10 - 19 Years Male   Yes   11.9           11.9
##  9 20 - 29 Years Female No     0.0538         0.1
## 10 20 - 29 Years Female Yes   11.1           11.1
## # … with 26 more rows
…
