Tour de France · Portfolio website for Joseph Perrin
…
Records

7 Wins: Lance Armstrong (USA)

5 Wins: Jacques Anquetil (FRA), Eddy Merckx (BEL), Bernard Hinault (GBR), Miguel Indurain (ESP)

4 Wins: Christopher Froome (GBR)

3 Wins: Philippe Thys (BEL), Louison Bobet (FRA), Greg LeMond (USA)

2 Wins: Lucien Petit-Breton (FRA), Firmin Lambot (BEL), Ottavio Bottecchia (ITA), Nicolas Frantz (LUX), André Leducq (FRA), Antonin Magne (FRA), Sylvère Maes (BEL), Gino Bartali (ITA), Fausto Coppi (ITA), Bernard Thévenet (FRA), Laurent Fignon (FRA), Alberto Contador (ESP)

## # A tibble: 21 x 2
##    Winner       Count
##    <chr>        <int>
##  1 L. Armstrong     7
##  2 B. Hinault       5
##  3 E. Merckx        5
##  4 J. Anquetil      5
##  5 M. Indurain      5
##  6 C. Froome        4
##  7 G. LeMond        3
##  8 L. Bobet         3
##  9 P. Thys          3
## 10 A. Contador      2
## # … with 11 more rows
…
